Access the xpdb data • xpose
…
Access the model code

The get_code() function can be used to access the parsed model code from the xpdb. This code was used to create the summary and find table names. The parsed code can be used to get additional information about the run. If the argument .problem is specified a subset of the code can be returned based on $PROBLEM.

Note that general code warnings and PsN outputs appended are listed as problem 0.

code <- get_code(xpdb)
code

# A tibble: 764 x 5
   problem level subroutine code                                                   comment         
 *   <int> <int> <chr>      <chr>                                                  <chr>           
 1       0     0 oth        Mon Oct 16 13:34:28 CEST 2017                          ""              
 2       0     0 oth        ""                                                     ; 1. Based on: …
 3       0     0 oth        ""                                                     "; 2. Descripti…
 4       0     0 oth        ""                                                     ; NONMEM PK exa…
 5       1     1 pro        Parameter estimation                                   ""              
 6       1     2 inp        ID DOSE DV SCR AGE SEX CLASS WT ACE MED1 MED2 TAD TIME ""              
 7       1     2 inp        " CLCR AMT SS II EVID"                                 ""              
 8       1     3 dat        ../../mx19_2.csv IGNORE=@                              ""              
 9       1     4 abb        DERIV2=NO                                              ""              
10       1     5 sub        ADVAN2 TRANS1                                          ""              
# ... with 754 more rows

Access the output data

The get_data() function can be used to access the imported table files. Tables can be accessed by table name or by .problem. In the latter a single dataset containing all aggregated tables is returned. If more than one table name or .problem number is provided a named list is returned.

Note when providing a table name it is not guaranteed that the table will be identical to its file (i.e. the order of the columns may have been changed and tables with FIRSTONLY will no longer be deduplicated).

data <- get_data(xpdb, table = 'cotab001')
data

# A tibble: 550 x 4
   ID      CLCR   AGE    WT
   <fctr> <dbl> <dbl> <dbl>
 1 110     66.0  68.0 105  
 2 110     66.0  68.0 105  
 3 110     66.0  68.0 105  
 4 110     66.0  68.0 105  
 5 110     66.0  68.0 105  
 6 110     66.0  68.0 105  
 7 110     66.0  68.0 105  
 8 112     47.0  73.0  80.0
 9 112     47.0  73.0  80.0
10 112     47.0  73.0  80.0
# ... with 540 more rows

Access the run files

The get_file() function can be used to access the imported output files. Files can be accessed by file name, by .problem, .subprob and/or .method. If more than one file name, .problem, .subprob, or .method is provided a named list is returned.

file <- get_file(xpdb, file = 'run001.ext')
file

# A tibble: 28 x 16
   ITERA… THET… THET… THET… THET… THET…  THETA6  THETA7 `SIG… `OMEG… `OME… `OMEG… `OME… `OME… `OME…
    <dbl> <dbl> <dbl> <dbl> <dbl> <dbl>   <dbl>   <dbl> <dbl>  <dbl> <dbl>  <dbl> <dbl> <dbl> <dbl>
 1   0     25.4  1.47  7.45 0.214 0.200 0.00983 0.00601  1.00 0.0740     0 0.0389     0     0  2.38
 2   1.00  26.3  1.26  7.35 0.219 0.217 0.00989 0.00602  1.00 0.0744     0 0.0408     0     0  2.39
 3   2.00  25.6  1.47  7.29 0.216 0.212 0.00987 0.00603  1.00 0.0741     0 0.0411     0     0  2.41
 4   3.00  26.8  1.49  5.76 0.213 0.213 0.00979 0.00628  1.00 0.0730     0 0.0652     0     0  2.58
 5   4.00  26.7  1.49  5.69 0.213 0.212 0.00979 0.00629  1.00 0.0730     0 0.0664     0     0  2.58
 6   5.00  26.7  1.49  5.66 0.213 0.212 0.00979 0.00630  1.00 0.0730     0 0.0664     0     0  2.57
 7   6.00  26.6  1.49  5.03 0.210 0.217 0.0100  0.00652  1.00 0.0724     0 0.0633     0     0  2.35
 8   7.00  26.6  1.49  4.93 0.205 0.217 0.0100  0.00658  1.00 0.0717     0 0.0623     0     0  2.35
 9   8.00  26.6  1.48  4.62 0.211 0.217 0.00951 0.00735  1.00 0.0633     0 0.0547     0     0  2.57
10   9.00  26.6  1.46  4.41 0.209 0.217 0.00903 0.00874  1.00 0.0766     0 0.0493     0     0  2.47
# ... with 18 more rows, and 1 more variable: OBJ <dbl>
…
