Access model output file data — get_file • xpose
…
    Value

    A tibble for single file or a named list for multiple files.

    See also

    xpose_data, read_nm_files

    Examples

# Single file (returns a tibble)
ext_file <- get_file(xpdb_ex_pk, file = 'run001.ext')
#> Returning data from run001.ext, $prob no.1, subprob no.0, method foce
ext_file
#> # A tibble: 28 x 16
#>    ITERATION  THETA1  THETA2  THETA3   THETA4   THETA5     THETA6     THETA7
#>        <dbl>   <dbl>   <dbl>   <dbl>    <dbl>    <dbl>      <dbl>      <dbl>
#>  1         0 25.3535 1.46525 7.45219 0.214386 0.200119 0.00982739 0.00600636
#>  2         1 26.3257 1.26115 7.34822 0.218727 0.217040 0.00988562 0.00602074
#>  3         2 25.6334 1.46525 7.29462 0.215628 0.212214 0.00987192 0.00602702
#>  4         3 26.7952 1.48967 5.76180 0.213014 0.213097 0.00978966 0.00628043
#>  5         4 26.6949 1.48849 5.69320 0.213037 0.212436 0.00978746 0.00629408
#>  6         5 26.7278 1.48841 5.66352 0.213025 0.211937 0.00979166 0.00630166
#>  7         6 26.6462 1.49205 5.02679 0.209907 0.217267 0.01000230 0.00651552
#>  8         7 26.6205 1.48806 4.92877 0.205327 0.217191 0.01000980 0.00657615
#>  9         8 26.5629 1.47648 4.62271 0.210903 0.216647 0.00951367 0.00735274
#> 10         9 26.5577 1.45700 4.41353 0.209440 0.216923 0.00903287 0.00873910
#> # ... with 18 more rows, and 8 more variables: `SIGMA(1,1)` <dbl>,
#> #   `OMEGA(1,1)` <dbl>, `OMEGA(2,1)` <dbl>, `OMEGA(2,2)` <dbl>,
#> #   `OMEGA(3,1)` <dbl>, `OMEGA(3,2)` <dbl>, `OMEGA(3,3)` <dbl>, OBJ <dbl>

# Multiple files (returns a list)
files <- get_file(xpdb_ex_pk, file = c('run001.ext', 'run001.phi'))
#> Returning data from run001.ext, run001.phi
files
#> $run001.ext_prob_1_subprob_0_foce
#> # A tibble: 28 x 16
#>    ITERATION  THETA1  THETA2  THETA3   THETA4   THETA5     THETA6     THETA7
#>        <dbl>   <dbl>   <dbl>   <dbl>    <dbl>    <dbl>      <dbl>      <dbl>
#>  1         0 25.3535 1.46525 7.45219 0.214386 0.200119 0.00982739 0.00600636
#>  2         1 26.3257 1.26115 7.34822 0.218727 0.217040 0.00988562 0.00602074
#>  3         2 25.6334 1.46525 7.29462 0.215628 0.212214 0.00987192 0.00602702
#>  4         3 26.7952 1.48967 5.76180 0.213014 0.213097 0.00978966 0.00628043
#>  5         4 26.6949 1.48849 5.69320 0.213037 0.212436 0.00978746 0.00629408
#>  6         5 26.7278 1.48841 5.66352 0.213025 0.211937 0.00979166 0.00630166
#>  7         6 26.6462 1.49205 5.02679 0.209907 0.217267 0.01000230 0.00651552
#>  8         7 26.6205 1.48806 4.92877 0.205327 0.217191 0.01000980 0.00657615
#>  9         8 26.5629 1.47648 4.62271 0.210903 0.216647 0.00951367 0.00735274
#> 10         9 26.5577 1.45700 4.41353 0.209440 0.216923 0.00903287 0.00873910
#> # ... with 18 more rows, and 8 more variables: `SIGMA(1,1)` <dbl>,
#> #   `OMEGA(1,1)` <dbl>, `OMEGA(2,1)` <dbl>, `OMEGA(2,2)` <dbl>,
#> #   `OMEGA(3,1)` <dbl>, `OMEGA(3,2)` <dbl>, `OMEGA(3,3)` <dbl>, OBJ <dbl>
#> 
#> $run001.phi_prob_1_subprob_0_foce
#> # A tibble: 74 x 12
#>    SUBJECT_NO    ID   `ETA(1)`    `ETA(2)`   `ETA(3)` `ETC(1,1)`   `ETC(2,1)`
#>         <dbl> <dbl>      <dbl>       <dbl>      <dbl>      <dbl>        <dbl>
#>  1          1   110 -0.0370214 -0.00596131 -2.1375700 0.02575210 -9.60917e-03
#>  2          2   112 -0.0494512  0.12193500 -0.0234835 0.01403470 -2.18604e-03
#>  3          3   113  0.3316200  0.02587620 -1.1512500 0.00994702  2.99672e-04
#>  4          4   121  0.3042650  0.24940700  1.8948900 0.00740752  3.61808e-03
#>  5          5   123  0.0270513 -0.08009540  1.0901000 0.00794036  2.67481e-03
#>  6          6   124  0.3317570  0.11133900 -1.5444900 0.01104610 -2.18899e-03
#>  7          7   126  0.1903330 -0.03154750  2.1980900 0.00784808  2.99564e-03
#>  8          8   127  0.1897610 -0.07498140  0.4151270 0.01124380  4.69039e-03
#>  9          9   128 -0.0137553 -0.00130047 -1.2684200 0.01200760  3.33337e-05
#> 10         10   210 -0.3065210 -0.10751900 -0.0167989 0.00987629  1.12277e-03
#> # ... with 64 more rows, and 5 more variables: `ETC(2,2)` <dbl>,
#> #   `ETC(3,1)` <dbl>, `ETC(3,2)` <dbl>, `ETC(3,3)` <dbl>, OBJ <dbl>
…
